\relax 
\citation{newyork}
\citation{DBLP:conf/fskd/TaoC07,DBLP:conf/vtc/ChenLC10,6338703,DBLP:conf/sensys/ZhangLZLLH13,DBLP:conf/icde/MaZW13}
\citation{DBLP:conf/sensys/ZhangLZLLH13}
\citation{DBLP:conf/icde/MaZW13}
\citation{DBLP:conf/sensys/ZhangLZLLH13,DBLP:conf/icde/MaZW13}
\@writefile{toc}{\contentsline {section}{\numberline {I}Introduction}{1}}
\@writefile{lof}{\contentsline {figure}{\numberline {1}{\ignorespaces First, one request is received, and Taxi B is better to serve the request.}}{1}}
\newlabel{qos_example}{{1}{1}}
\@writefile{lof}{\contentsline {figure}{\numberline {2}{\ignorespaces Second, a new urgent request is received, the current schedule is better to be updated.}}{1}}
\newlabel{update_example}{{2}{1}}
\citation{DBLP:conf/fskd/TaoC07,DBLP:conf/vtc/ChenLC10,6338703,DBLP:conf/sensys/ZhangLZLLH13,DBLP:conf/icde/MaZW13}
\citation{DBLP:conf/fskd/TaoC07}
\citation{DBLP:conf/vtc/ChenLC10,6338703}
\citation{DBLP:conf/vtc/ChenLC10}
\citation{6338703}
\citation{DBLP:conf/sensys/ZhangLZLLH13,DBLP:conf/icde/MaZW13}
\citation{DBLP:conf/sensys/ZhangLZLLH13}
\citation{DBLP:conf/icde/MaZW13}
\citation{DBLP:journals/anor/CordeauL07}
\citation{healy1995new}
\citation{cordeau2006branch,ropke2007models}
\citation{borndorfer1999telebus,aldaihani2003hybrid}
\citation{Lin2012494,attanasio2004parallel}
\citation{DBLP:conf/huc/YuanZZXS11,DBLP:journals/tkde/YuanZZX13}
\citation{Zheng:2012:WT:2346496.2346520}
\citation{yamamoto2008adaptive,6183233}
\citation{wang2014travel}
\@writefile{toc}{\contentsline {section}{\numberline {II}Related Work}{2}}
\@writefile{toc}{\contentsline {subsection}{\numberline {\unhbox \voidb@x \hbox {II-A}}Taxi-sharing Systems}{2}}
\@writefile{toc}{\contentsline {subsection}{\numberline {\unhbox \voidb@x \hbox {II-B}}Carpooling}{2}}
\@writefile{toc}{\contentsline {subsection}{\numberline {\unhbox \voidb@x \hbox {II-C}}Taxi Serving Systems}{2}}
\@writefile{toc}{\contentsline {section}{\numberline {III}System Overview}{2}}
\@writefile{toc}{\contentsline {subsection}{\numberline {\unhbox \voidb@x \hbox {III-A}}Passengers}{2}}
\citation{DBLP:conf/icde/MaZW13}
\citation{bworld}
\@writefile{lof}{\contentsline {figure}{\numberline {3}{\ignorespaces System architecture}}{3}}
\newlabel{SystemOverview}{{3}{3}}
\@writefile{lot}{\contentsline {table}{\numberline {I}{\ignorespaces Summary of symbols}}{3}}
\newlabel{symbols}{{I}{3}}
\newlabel{decayFunction}{{\unhbox \voidb@x \hbox {III-A}}{3}}
\newlabel{decayFunctionShow}{{4(a)}{3}}
\newlabel{sub@decayFunctionShow}{{(a)}{3}}
\newlabel{decayFunctionSurvey}{{4(b)}{3}}
\newlabel{sub@decayFunctionSurvey}{{(b)}{3}}
\@writefile{lof}{\contentsline {figure}{\numberline {4}{\ignorespaces Comparison of three common decay functions}}{3}}
\@writefile{lof}{\contentsline {subfigure}{\numberline{(a)}{\ignorespaces {Example of three different decay functions.}}}{3}}
\@writefile{lof}{\contentsline {subfigure}{\numberline{(b)}{\ignorespaces {Most people prefer a simple linear decay function.}}}{3}}
\@writefile{toc}{\contentsline {subsection}{\numberline {\unhbox \voidb@x \hbox {III-B}}Drivers}{3}}
\citation{biagioni2012inferring}
\citation{DBLP:conf/gis/YuanZZXXSH10,DBLP:conf/aaai/ZhengN13,DBLP:conf/aaai/IdeS11}
\citation{DBLP:conf/aaai/IdeS11}
\citation{DBLP:conf/aaai/ZhengN13}
\@writefile{toc}{\contentsline {subsection}{\numberline {\unhbox \voidb@x \hbox {III-C}}Server}{4}}
\@writefile{toc}{\contentsline {section}{\numberline {IV}Pre-processing}{4}}
\@writefile{toc}{\contentsline {subsection}{\numberline {\unhbox \voidb@x \hbox {IV-A}}Map Decomposition}{4}}
\@writefile{toc}{\contentsline {subsection}{\numberline {\unhbox \voidb@x \hbox {IV-B}}Map Clustering}{4}}
\@writefile{loa}{\contentsline {algorithm}{\numberline {1}{\ignorespaces LandmarkGeneration}}{4}}
\newlabel{algo-landmark}{{1}{4}}
\newlabel{estimatedtraveltime}{{1}{4}}
\citation{wang2014travel}
\newlabel{mapDecomposition}{{5(a)}{5}}
\newlabel{sub@mapDecomposition}{{(a)}{5}}
\newlabel{cluster illustration}{{5(b)}{5}}
\newlabel{sub@cluster illustration}{{(b)}{5}}
\@writefile{lof}{\contentsline {figure}{\numberline {5}{\ignorespaces Map decomposition and clustering of part of ZhenJiang}}{5}}
\@writefile{lof}{\contentsline {subfigure}{\numberline{(a)}{\ignorespaces {Map Decomposition}}}{5}}
\@writefile{lof}{\contentsline {subfigure}{\numberline{(b)}{\ignorespaces {Clustering}}}{5}}
\newlabel{example}{{5}{5}}
\@writefile{loa}{\contentsline {algorithm}{\numberline {2}{\ignorespaces RoadNetworkClustering}}{5}}
\newlabel{algo-clustering}{{2}{5}}
\@writefile{toc}{\contentsline {section}{\numberline {V}Online processing}{5}}
\@writefile{toc}{\contentsline {subsection}{\numberline {\unhbox \voidb@x \hbox {V-A}}Problem Modeling}{5}}
\@writefile{toc}{\contentsline {subsection}{\numberline {\unhbox \voidb@x \hbox {V-B}}Optimal Solution}{5}}
\newlabel{1.1}{{2}{5}}
\newlabel{1.2}{{3}{5}}
\newlabel{1.3}{{4}{5}}
\newlabel{1.4}{{5}{5}}
\newlabel{1.5}{{6}{5}}
\citation{cordeau2006branch}
\citation{DBLP:conf/icde/MaZW13}
\newlabel{1.6}{{7}{6}}
\newlabel{1.7}{{8}{6}}
\newlabel{1.8}{{9}{6}}
\newlabel{1.9}{{10}{6}}
\newlabel{1.10}{{11}{6}}
\newlabel{WeightedQOS}{{15}{6}}
\@writefile{toc}{\contentsline {subsection}{\numberline {\unhbox \voidb@x \hbox {V-C}}Heuristic Algorithm}{6}}
\@writefile{lof}{\contentsline {figure}{\numberline {6}{\ignorespaces Index of taxis}}{6}}
\newlabel{index_example}{{6}{6}}
\newlabel{candidate clusters}{{16}{6}}
\citation{hopcroft1973n}
\citation{DBLP:conf/icde/MaZW13}
\@writefile{loa}{\contentsline {algorithm}{\numberline {3}{\ignorespaces Searching Algorithm}}{7}}
\newlabel{algo-searching}{{3}{7}}
\@writefile{toc}{\contentsline {subsection}{\numberline {\unhbox \voidb@x \hbox {V-D}}Route Update Mechanism}{7}}
\@writefile{toc}{\contentsline {section}{\numberline {VI}Evaluation}{7}}
\newlabel{evaluation}{{VI}{7}}
\@writefile{toc}{\contentsline {subsection}{\numberline {\unhbox \voidb@x \hbox {VI-A}}Dataset}{7}}
\@writefile{toc}{\contentsline {subsection}{\numberline {\unhbox \voidb@x \hbox {VI-B}}Experimental Methodology}{7}}
\@writefile{toc}{\contentsline {subsubsection}{\numberline {\unhbox \voidb@x \hbox {VI-B}1}Competing Methods}{7}}
\@writefile{toc}{\contentsline {subsubsection}{\numberline {\unhbox \voidb@x \hbox {VI-B}2}Initial taxi status}{7}}
\@writefile{toc}{\contentsline {subsubsection}{\numberline {\unhbox \voidb@x \hbox {VI-B}3}Actual total number of requests}{7}}
\@writefile{toc}{\contentsline {subsubsection}{\numberline {\unhbox \voidb@x \hbox {VI-B}4}Request information}{7}}
\@writefile{toc}{\contentsline {subsubsection}{\numberline {\unhbox \voidb@x \hbox {VI-B}5}System parameters}{8}}
\@writefile{toc}{\contentsline {subsection}{\numberline {\unhbox \voidb@x \hbox {VI-C}}Performance Evaluation}{8}}
\@writefile{lof}{\contentsline {figure}{\numberline {7}{\ignorespaces Profit vs. delta in busy hours}}{8}}
\newlabel{LargeScale}{{7}{8}}
\@writefile{lof}{\contentsline {figure}{\numberline {8}{\ignorespaces Profit vs. delta in leisure hours}}{8}}
\newlabel{SmallScale}{{8}{8}}
\@writefile{lof}{\contentsline {figure}{\numberline {9}{\ignorespaces Profit vs. DT in busy hours}}{8}}
\newlabel{DTLargeScale}{{9}{8}}
\@writefile{lof}{\contentsline {figure}{\numberline {10}{\ignorespaces Profit vs. DT in leisure hours}}{8}}
\newlabel{DTSmallScale}{{10}{8}}
\@writefile{lof}{\contentsline {figure}{\numberline {11}{\ignorespaces Satisfaction rate vs. delta}}{8}}
\newlabel{satisfaction_delta}{{11}{8}}
\@writefile{lof}{\contentsline {figure}{\numberline {12}{\ignorespaces Satisfaction rate vs. DT}}{8}}
\newlabel{satisfaction_DT}{{12}{8}}
\bibdata{taxisharing}
\bibcite{newyork}{{1}{}{{}}{{}}}
\bibcite{DBLP:conf/fskd/TaoC07}{{2}{}{{}}{{}}}
\bibcite{DBLP:conf/vtc/ChenLC10}{{3}{}{{}}{{}}}
\bibcite{6338703}{{4}{}{{}}{{}}}
\bibcite{DBLP:conf/sensys/ZhangLZLLH13}{{5}{}{{}}{{}}}
\bibcite{DBLP:conf/icde/MaZW13}{{6}{}{{}}{{}}}
\bibcite{DBLP:journals/anor/CordeauL07}{{7}{}{{}}{{}}}
\@writefile{lof}{\contentsline {figure}{\numberline {13}{\ignorespaces Distance ratio vs. delta}}{9}}
\newlabel{distanceratio_delta}{{13}{9}}
\@writefile{lof}{\contentsline {figure}{\numberline {14}{\ignorespaces Distance ratio vs. DT}}{9}}
\newlabel{distanceratio_DT}{{14}{9}}
\@writefile{toc}{\contentsline {subsection}{\numberline {\unhbox \voidb@x \hbox {VI-D}}Evaluation of system parameters}{9}}
\@writefile{lof}{\contentsline {figure}{\numberline {15}{\ignorespaces {Profit vs. Process Window}}}{9}}
\newlabel{profit_processwindow}{{15}{9}}
\@writefile{lof}{\contentsline {figure}{\numberline {16}{\ignorespaces Influence of Update Threshold}}{9}}
\newlabel{updatethreshold}{{16}{9}}
\@writefile{lof}{\contentsline {figure}{\numberline {17}{\ignorespaces Running time of optimal algorithm}}{9}}
\newlabel{runningtime}{{17}{9}}
\@writefile{toc}{\contentsline {section}{\numberline {VII}Conclusion}{9}}
\bibcite{healy1995new}{{8}{}{{}}{{}}}
\bibcite{cordeau2006branch}{{9}{}{{}}{{}}}
\bibcite{ropke2007models}{{10}{}{{}}{{}}}
\bibcite{borndorfer1999telebus}{{11}{}{{}}{{}}}
\bibcite{aldaihani2003hybrid}{{12}{}{{}}{{}}}
\bibcite{Lin2012494}{{13}{}{{}}{{}}}
\bibcite{attanasio2004parallel}{{14}{}{{}}{{}}}
\bibcite{DBLP:conf/huc/YuanZZXS11}{{15}{}{{}}{{}}}
\bibcite{DBLP:journals/tkde/YuanZZX13}{{16}{}{{}}{{}}}
\bibcite{Zheng:2012:WT:2346496.2346520}{{17}{}{{}}{{}}}
\bibcite{yamamoto2008adaptive}{{18}{}{{}}{{}}}
\bibcite{6183233}{{19}{}{{}}{{}}}
\bibcite{wang2014travel}{{20}{}{{}}{{}}}
\bibcite{bworld}{{21}{}{{}}{{}}}
\bibcite{biagioni2012inferring}{{22}{}{{}}{{}}}
\bibcite{DBLP:conf/gis/YuanZZXXSH10}{{23}{}{{}}{{}}}
\bibcite{DBLP:conf/aaai/ZhengN13}{{24}{}{{}}{{}}}
\bibcite{DBLP:conf/aaai/IdeS11}{{25}{}{{}}{{}}}
\bibcite{hopcroft1973n}{{26}{}{{}}{{}}}
\bibstyle{IEEEtran}
\providecommand\NAT@force@numbers{}\NAT@force@numbers
